2/design24dec/simulation/qsim/design24dec.msim.vcd
$comment
	File created using the following command:
		vcd file design24dec.msim.vcd -direction
$end
$date
	Thu Mar 14 18:15:58 2024
$end
$version
	ModelSim Version 10.1d
$end
$timescale
	1ps
$end
$scope module design24dec_vlg_vec_tst $end
$var reg 1 ! A0 $end
$var reg 1 " A1 $end
$var reg 1 # Ee $end
$var wire 1 $ Y0 $end
$var wire 1 % Y1 $end
$var wire 1 & Y2 $end
$var wire 1 ' Y3 $end
$var wire 1 ( sampler $end
$scope module i1 $end
$var wire 1 ) gnd $end
$var wire 1 * vcc $end
$var wire 1 + unknown $end
$var tri1 1 , devclrn $end
$var tri1 1 - devpor $end
$var tri1 1 . devoe $end
$var wire 1 / Y0~output_o $end
$var wire 1 0 Y3~output_o $end
$var wire 1 1 Y2~output_o $end
$var wire 1 2 Y1~output_o $end
$var wire 1 3 A1~input_o $end
$var wire 1 4 Ee~input_o $end
$var wire 1 5 A0~input_o $end
$var wire 1 6 inst3~combout $end
$var wire 1 7 inst~combout $end
$var wire 1 8 inst1~combout $end
$var wire 1 9 inst2~combout $end
$upscope $end
$upscope $end
$enddefinitions $end
#0
$dumpvars
0!
0"
0#
0$
1%
1&
1'
x(
0)
1*
x+
1,
1-
1.
0/
10
11
12
03
04
05
16
07
08
09
$end
#10000
1!
15
0(
19
06
02
1/
0%
1$
#20000
1"
0!
13
05
1(
09
18
12
01
1%
0&
#30000
1!
15
0(
08
17
11
00
1&
0'
#40000
0"
0!
03
05
1(
07
16
10
0/
1'
0$
#50000
1!
15
0(
19
06
02
1/
0%
1$
#60000
1"
0!
13
05
1(
09
18
12
01
1%
0&
#70000
1!
15
0(
08
17
11
00
1&
0'
#80000
0"
0!
03
05
1(
07
16
10
0/
1'
0$
#90000
1!
15
0(
19
06
02
1/
0%
1$
#100000
1"
0!
13
05
1(
09
18
12
01
1%
0&
#110000
1!
15
0(
08
17
11
00
1&
0'
#120000
0"
0!
03
05
1(
07
16
10
0/
1'
0$
#130000
1!
15
0(
19
06
02
1/
0%
1$
#140000
1"
0!
13
05
1(
09
18
12
01
1%
0&
#150000
1!
15
0(
08
17
11
00
1&
0'
#160000
0"
0!
03
05
1(
07
16
10
0/
1'
0$
#170000
1!
15
0(
19
06
02
1/
0%
1$
#180000
1"
0!
13
05
1(
09
18
12
01
1%
0&
#190000
1!
15
0(
08
17
11
00
1&
0'
#200000
0"
0!
03
05
1(
07
16
10
0/
1'
0$
#210000
1!
15
0(
19
06
02
1/
0%
1$
#220000
1"
0!
13
05
1(
09
18
12
01
1%
0&
#230000
1!
15
0(
08
17
11
00
1&
0'
#240000
0"
0!
03
05
1(
07
16
10
0/
1'
0$
#250000
1!
15
0(
19
06
02
1/
0%
1$
#260000
1"
0!
13
05
1(
09
18
12
01
1%
0&
#270000
1!
15
0(
08
17
11
00
1&
0'
#280000
0"
0!
03
05
1(
07
16
10
0/
1'
0$
#290000
1!
15
0(
19
06
02
1/
0%
1$
#300000
1"
0!
13
05
1(
09
18
12
01
1%
0&
#310000
1!
15
0(
08
17
11
00
1&
0'
#320000
0"
0!
03
05
1(
07
16
10
0/
1'
0$
#330000
1!
15
0(
19
06
02
1/
0%
1$
#340000
1"
0!
13
05
1(
09
18
12
01
1%
0&
#350000
1!
15
0(
08
17
11
00
1&
0'
#360000
0"
0!
03
05
1(
07
16
10
0/
1'
0$
#370000
1!
15
0(
19
06
02
1/
0%
1$
#380000
1"
0!
13
05
1(
09
18
12
01
1%
0&
#390000
1!
15
0(
08
17
11
00
1&
0'
#400000
0"
0!
03
05
1(
07
16
10
0/
1'
0$
#410000
1!
15
0(
19
06
02
1/
0%
1$
#420000
1"
0!
13
05
1(
09
18
12
01
1%
0&
#430000
1!
15
0(
08
17
11
00
1&
0'
#440000
0"
0!
03
05
1(
07
16
10
0/
1'
0$
#450000
1!
15
0(
19
06
02
1/
0%
1$
#460000
1"
0!
13
05
1(
09
18
12
01
1%
0&
#470000
1!
15
0(
08
17
11
00
1&
0'
#480000
0"
0!
03
05
1(
07
16
10
0/
1'
0$
#490000
1!
15
0(
19
06
02
1/
0%
1$
#500000
1"
0!
13
05
1(
09
18
12
01
1%
0&
#510000
1!
15
0(
08
17
11
00
1&
0'
#520000
0"
0!
03
05
1(
07
16
10
0/
1'
0$
#530000
1!
15
0(
19
06
02
1/
0%
1$
#540000
1"
0!
13
05
1(
09
18
12
01
1%
0&
#550000
1!
15
0(
08
17
11
00
1&
0'
#560000
0"
0!
03
05
1(
07
16
10
0/
1'
0$
#570000
1!
15
0(
19
06
02
1/
0%
1$
#580000
1"
0!
13
05
1(
09
18
12
01
1%
0&
#590000
1!
15
0(
08
17
11
00
1&
0'
#600000
1#
0"
0!
14
03
05
1(
07
10
1'
#610000
1!
15
0(
#620000
1"
0!
13
05
1(
#630000
1!
15
0(
#640000
0"
0!
03
05
1(
#650000
1!
15
0(
#660000
1"
0!
13
05
1(
#670000
1!
15
0(
#680000
0"
0!
03
05
1(
#690000
1!
15
0(
#700000
1"
0!
13
05
1(
#710000
1!
15
0(
#720000
0"
0!
03
05
1(
#730000
1!
15
0(
#740000
1"
0!
13
05
1(
#750000
1!
15
0(
#760000
0"
0!
03
05
1(
#770000
1!
15
0(
#780000
1"
0!
13
05
1(
#790000
1!
15
0(
#800000
0"
0!
03
05
1(
#810000
1!
15
0(
#820000
1"
0!
13
05
1(
#830000
1!
15
0(
#840000
0"
0!
03
05
1(
#850000
1!
15
0(
#860000
1"
0!
13
05
1(
#870000
1!
15
0(
#880000
0"
0!
03
05
1(
#890000
1!
15
0(
#900000
1"
0!
13
05
1(
#910000
1!
15
0(
#920000
0"
0!
03
05
1(
#930000
1!
15
0(
#940000
1"
0!
13
05
1(
#950000
1!
15
0(
#960000
0"
0!
03
05
1(
#970000
1!
15
0(
#980000
1"
0!
13
05
1(
#990000
1!
15
0(
