2/sim74138/simulation/qsim/sim74138.msim.vcd
$comment
	File created using the following command:
		vcd file sim74138.msim.vcd -direction
$end
$date
	Thu Mar 14 18:17:31 2024
$end
$version
	ModelSim Version 10.1d
$end
$timescale
	1ps
$end
$scope module sim74138_vlg_vec_tst $end
$var reg 1 ! A $end
$var reg 1 " B $end
$var reg 1 # C $end
$var reg 1 $ E1 $end
$var reg 1 % E2 $end
$var reg 1 & E3 $end
$var wire 1 ' Y0 $end
$var wire 1 ( Y1 $end
$var wire 1 ) Y2 $end
$var wire 1 * Y3 $end
$var wire 1 + Y4 $end
$var wire 1 , Y5 $end
$var wire 1 - Y6 $end
$var wire 1 . Y7 $end
$var wire 1 / sampler $end
$scope module i1 $end
$var wire 1 0 gnd $end
$var wire 1 1 vcc $end
$var wire 1 2 unknown $end
$var tri1 1 3 devclrn $end
$var tri1 1 4 devpor $end
$var tri1 1 5 devoe $end
$var wire 1 6 Y0~output_o $end
$var wire 1 7 Y1~output_o $end
$var wire 1 8 Y2~output_o $end
$var wire 1 9 Y3~output_o $end
$var wire 1 : Y4~output_o $end
$var wire 1 ; Y5~output_o $end
$var wire 1 < Y6~output_o $end
$var wire 1 = Y7~output_o $end
$var wire 1 > C~input_o $end
$var wire 1 ? B~input_o $end
$var wire 1 @ E2~input_o $end
$var wire 1 A E1~input_o $end
$var wire 1 B E3~input_o $end
$var wire 1 C A~input_o $end
$var wire 1 D inst|21~0_combout $end
$var wire 1 E inst|15~combout $end
$var wire 1 F inst|22~0_combout $end
$var wire 1 G inst|16~combout $end
$var wire 1 H inst|17~combout $end
$var wire 1 I inst|18~combout $end
$var wire 1 J inst|19~combout $end
$var wire 1 K inst|20~combout $end
$var wire 1 L inst|21~combout $end
$var wire 1 M inst|22~combout $end
$upscope $end
$upscope $end
$enddefinitions $end
#0
$dumpvars
0!
0"
0#
1$
0%
0&
0'
1(
1)
1*
1+
1,
1-
1.
x/
00
11
x2
13
14
15
06
17
18
19
1:
1;
1<
1=
0>
0?
0@
1A
0B
0C
1D
1E
0F
0G
0H
0I
0J
0K
0L
0M
$end
#10000
1!
1C
0/
1F
0D
1G
0E
07
16
0(
1'
#20000
1"
0!
1?
0C
1/
1I
0G
0F
1D
0I
1H
09
17
0*
1(
19
08
1*
0)
#30000
1!
1C
0/
1F
0D
1I
0H
09
18
0*
1)
#40000
1#
0"
0!
1>
0?
0C
1/
1K
0I
0F
1D
0K
1J
0;
19
0,
1*
1;
0:
1,
0+
#50000
1!
1C
0/
1F
0D
1K
0J
0;
1:
0,
1+
#60000
1"
0!
1?
0C
1/
1M
0K
0F
1D
0M
1L
0=
1;
0.
1,
1=
0<
1.
0-
#70000
1!
1C
0/
1F
0D
1M
0L
0=
1<
0.
1-
#80000
0#
0"
0!
0>
0?
0C
1/
0M
1G
0F
1D
0G
1E
1=
07
1.
0(
17
06
1(
0'
#90000
1!
1C
0/
1F
0D
1G
0E
07
16
0(
1'
#100000
1"
0!
1?
0C
1/
1I
0G
0F
1D
0I
1H
09
17
0*
1(
19
08
1*
0)
#110000
1!
1C
0/
1F
0D
1I
0H
09
18
0*
1)
#120000
1#
0"
0!
1>
0?
0C
1/
1K
0I
0F
1D
0K
1J
0;
19
0,
1*
1;
0:
1,
0+
#130000
1!
1C
0/
1F
0D
1K
0J
0;
1:
0,
1+
#140000
1"
0!
1?
0C
1/
1M
0K
0F
1D
0M
1L
0=
1;
0.
1,
1=
0<
1.
0-
#150000
1!
1C
0/
1F
0D
1M
0L
0=
1<
0.
1-
#160000
0#
0"
0!
0>
0?
0C
1/
0M
1G
0F
1D
0G
1E
1=
07
1.
0(
17
06
1(
0'
#170000
1!
1C
0/
1F
0D
1G
0E
07
16
0(
1'
#180000
1"
0!
1?
0C
1/
1I
0G
0F
1D
0I
1H
09
17
0*
1(
19
08
1*
0)
#190000
1!
1C
0/
1F
0D
1I
0H
09
18
0*
1)
#200000
1#
0"
0!
1>
0?
0C
1/
1K
0I
0F
1D
0K
1J
0;
19
0,
1*
1;
0:
1,
0+
#210000
1!
1C
0/
1F
0D
1K
0J
0;
1:
0,
1+
#220000
1"
0!
1?
0C
1/
1M
0K
0F
1D
0M
1L
0=
1;
0.
1,
1=
0<
1.
0-
#230000
1!
1C
0/
1F
0D
1M
0L
0=
1<
0.
1-
#240000
0#
0"
0!
0>
0?
0C
1/
0M
1G
0F
1D
0G
1E
1=
07
1.
0(
17
06
1(
0'
#250000
1!
1C
0/
1F
0D
1G
0E
07
16
0(
1'
#260000
1"
0!
1?
0C
1/
1I
0G
0F
1D
0I
1H
09
17
0*
1(
19
08
1*
0)
#270000
1!
1C
0/
1F
0D
1I
0H
09
18
0*
1)
#280000
1#
0"
0!
1>
0?
0C
1/
1K
0I
0F
1D
0K
1J
0;
19
0,
1*
1;
0:
1,
0+
#290000
1!
1C
0/
1F
0D
1K
0J
0;
1:
0,
1+
#300000
1"
0!
1?
0C
1/
1M
0K
0F
1D
0M
1L
0=
1;
0.
1,
1=
0<
1.
0-
#310000
1!
1C
0/
1F
0D
1M
0L
0=
1<
0.
1-
#320000
0#
0"
0!
0>
0?
0C
1/
0M
1G
0F
1D
0G
1E
1=
07
1.
0(
17
06
1(
0'
#330000
1!
1C
0/
1F
0D
1G
0E
07
16
0(
1'
#340000
1"
0!
1?
0C
1/
1I
0G
0F
1D
0I
1H
09
17
0*
1(
19
08
1*
0)
#350000
1!
1C
0/
1F
0D
1I
0H
09
18
0*
1)
#360000
1#
0"
0!
1>
0?
0C
1/
1K
0I
0F
1D
0K
1J
0;
19
0,
1*
1;
0:
1,
0+
#370000
1!
1C
0/
1F
0D
1K
0J
0;
1:
0,
1+
#380000
1"
0!
1?
0C
1/
1M
0K
0F
1D
0M
1L
0=
1;
0.
1,
1=
0<
1.
0-
#390000
1!
1C
0/
1F
0D
1M
0L
0=
1<
0.
1-
#400000
0#
0"
0!
0>
0?
0C
1/
0M
1G
0F
1D
0G
1E
1=
07
1.
0(
17
06
1(
0'
#410000
1!
1C
0/
1F
0D
1G
0E
07
16
0(
1'
#420000
1"
0!
1?
0C
1/
1I
0G
0F
1D
0I
1H
09
17
0*
1(
19
08
1*
0)
#430000
1!
1C
0/
1F
0D
1I
0H
09
18
0*
1)
#440000
1#
0"
0!
1>
0?
0C
1/
1K
0I
0F
1D
0K
1J
0;
19
0,
1*
1;
0:
1,
0+
#450000
1!
1C
0/
1F
0D
1K
0J
0;
1:
0,
1+
#460000
1"
0!
1?
0C
1/
1M
0K
0F
1D
0M
1L
0=
1;
0.
1,
1=
0<
1.
0-
#470000
1!
1C
0/
1F
0D
1M
0L
0=
1<
0.
1-
#480000
0#
0"
0!
0>
0?
0C
1/
0M
1G
0F
1D
0G
1E
1=
07
1.
0(
17
06
1(
0'
#490000
1!
1C
0/
1F
0D
1G
0E
07
16
0(
1'
#500000
1"
0!
1?
0C
1/
1I
0G
0F
1D
0I
1H
09
17
0*
1(
19
08
1*
0)
#510000
1!
1C
0/
1F
0D
1I
0H
09
18
0*
1)
#520000
1#
0"
0!
1>
0?
0C
1/
1K
0I
0F
1D
0K
1J
0;
19
0,
1*
1;
0:
1,
0+
#530000
1!
1C
0/
1F
0D
1K
0J
0;
1:
0,
1+
#540000
1"
0!
1?
0C
1/
1M
0K
0F
1D
0M
1L
0=
1;
0.
1,
1=
0<
1.
0-
#550000
1!
1C
0/
1F
0D
1M
0L
0=
1<
0.
1-
#560000
0$
1%
1&
0#
0"
0!
0A
1@
1B
0>
0?
0C
1/
0F
0M
1G
0G
1=
07
1.
0(
17
1(
#570000
1!
1C
0/
#580000
1"
0!
1?
0C
1/
#590000
1!
1C
0/
#600000
1#
0"
0!
1>
0?
0C
1/
#610000
1!
1C
0/
#620000
1"
0!
1?
0C
1/
#630000
1!
1C
0/
#640000
0#
0"
0!
0>
0?
0C
1/
#650000
1!
1C
0/
#660000
1"
0!
1?
0C
1/
#670000
1!
1C
0/
#680000
1#
0"
0!
1>
0?
0C
1/
#690000
1!
1C
0/
#700000
1"
0!
1?
0C
1/
#710000
1!
1C
0/
#720000
0#
0"
0!
0>
0?
0C
1/
#730000
1!
1C
0/
#740000
1"
0!
1?
0C
1/
#750000
1!
1C
0/
#760000
1#
0"
0!
1>
0?
0C
1/
#770000
1!
1C
0/
#780000
1"
0!
1?
0C
1/
#790000
1!
1C
0/
#800000
0#
0"
0!
0>
0?
0C
1/
#810000
1!
1C
0/
#820000
1"
0!
1?
0C
1/
#830000
1!
1C
0/
#840000
1#
0"
0!
1>
0?
0C
1/
#850000
1!
1C
0/
#860000
0%
0&
1"
0!
0@
0B
1?
0C
1/
#870000
1!
1C
0/
#880000
0#
0"
0!
0>
0?
0C
1/
#890000
1!
1C
0/
#900000
1"
0!
1?
0C
1/
#910000
1!
1C
0/
#920000
1#
0"
0!
1>
0?
0C
1/
#930000
1!
1C
0/
#940000
1"
0!
1?
0C
1/
#950000
1!
1C
0/
#960000
0#
0"
0!
0>
0?
0C
1/
#970000
1!
1C
0/
#980000
1"
0!
1?
0C
1/
#990000
1!
1C
0/
