6/bcd/simulation/qsim/bcd.msim.vcd
$comment
	File created using the following command:
		vcd file bcd.msim.vcd -direction
$end
$date
	Thu Apr 18 17:32:18 2024
$end
$version
	ModelSim Version 10.1d
$end
$timescale
	1ps
$end
$scope module bcd_vlg_vec_tst $end
$var reg 1 ! A0 $end
$var reg 1 " A1 $end
$var reg 1 # A2 $end
$var reg 1 $ A3 $end
$var reg 1 % A4 $end
$var reg 1 & A5 $end
$var reg 1 ' A6 $end
$var reg 1 ( A7 $end
$var reg 1 ) B0 $end
$var reg 1 * B1 $end
$var reg 1 + B2 $end
$var reg 1 , B3 $end
$var reg 1 - B4 $end
$var reg 1 . B5 $end
$var reg 1 / B6 $end
$var reg 1 0 B7 $end
$var wire 1 1 C8 $end
$var wire 1 2 S0 $end
$var wire 1 3 S1 $end
$var wire 1 4 S2 $end
$var wire 1 5 S3 $end
$var wire 1 6 S4 $end
$var wire 1 7 S5 $end
$var wire 1 8 S6 $end
$var wire 1 9 S7 $end
$var wire 1 : sampler $end
$scope module i1 $end
$var wire 1 ; gnd $end
$var wire 1 < vcc $end
$var wire 1 = unknown $end
$var tri1 1 > devclrn $end
$var tri1 1 ? devpor $end
$var tri1 1 @ devoe $end
$var wire 1 A S0~output_o $end
$var wire 1 B S1~output_o $end
$var wire 1 C S2~output_o $end
$var wire 1 D S3~output_o $end
$var wire 1 E S4~output_o $end
$var wire 1 F S5~output_o $end
$var wire 1 G S6~output_o $end
$var wire 1 H S7~output_o $end
$var wire 1 I C8~output_o $end
$var wire 1 J B0~input_o $end
$var wire 1 K A0~input_o $end
$var wire 1 L inst21|27~0_combout $end
$var wire 1 M A1~input_o $end
$var wire 1 N B1~input_o $end
$var wire 1 O inst21|43~0_combout $end
$var wire 1 P B3~input_o $end
$var wire 1 Q A3~input_o $end
$var wire 1 R inst21|51~0_combout $end
$var wire 1 S A2~input_o $end
$var wire 1 T B2~input_o $end
$var wire 1 U inst21|1~0_combout $end
$var wire 1 V inst21|51~1_combout $end
$var wire 1 W inst23|45~0_combout $end
$var wire 1 X inst22~0_combout $end
$var wire 1 Y inst23|29~0_combout $end
$var wire 1 Z inst23|51~0_combout $end
$var wire 1 [ inst21|44~0_combout $end
$var wire 1 \ inst23|44~0_combout $end
$var wire 1 ] inst23|45~1_combout $end
$var wire 1 ^ A4~input_o $end
$var wire 1 _ inst22~1_combout $end
$var wire 1 ` B4~input_o $end
$var wire 1 a inst2|42~combout $end
$var wire 1 b B5~input_o $end
$var wire 1 c inst2|19~0_combout $end
$var wire 1 d A5~input_o $end
$var wire 1 e inst2|1~0_combout $end
$var wire 1 f inst2|43~0_combout $end
$var wire 1 g inst2|51~0_combout $end
$var wire 1 h B6~input_o $end
$var wire 1 i A6~input_o $end
$var wire 1 j inst3|45~0_combout $end
$var wire 1 k A7~input_o $end
$var wire 1 l inst2|1~1_combout $end
$var wire 1 m inst2|1~2_combout $end
$var wire 1 n B7~input_o $end
$var wire 1 o inst~0_combout $end
$var wire 1 p inst3|29~0_combout $end
$var wire 1 q inst2|44~0_combout $end
$var wire 1 r inst3|44~0_combout $end
$var wire 1 s inst3|45~1_combout $end
$var wire 1 t inst3|2~0_combout $end
$upscope $end
$upscope $end
$enddefinitions $end
#0
$dumpvars
0!
0"
0#
0$
0%
0&
0'
0(
0)
0*
0+
0,
0-
0.
0/
00
01
02
03
04
05
06
07
08
09
x:
0;
1<
x=
1>
1?
1@
0A
0B
0C
0D
0E
0F
0G
0H
0I
0J
0K
0L
0M
0N
1O
0P
0Q
0R
0S
0T
1U
1V
1W
0X
0Y
1Z
0[
0\
0]
0^
0_
0`
1a
0b
1c
0d
1e
1f
1g
0h
0i
1j
0k
0l
1m
0n
0o
1p
0q
0r
0s
1t
$end
#30000
1!
1K
0:
1L
1A
12
#40000
1)
1J
1:
0O
0L
0W
0A
02
1Y
1B
13
#60000
1"
0!
1M
0K
0:
1L
1A
12
#80000
1*
0)
1N
0J
1:
0V
1R
1O
0L
0A
02
1\
0Y
1C
0B
14
03
#90000
1!
1K
0:
1L
1A
12
#120000
1%
1#
0"
1)
0!
1^
1S
0M
1J
0K
1:
0c
0a
1[
1W
0U
1V
0R
0O
0Z
0W
1U
1E
16
1]
1Y
1Z
1D
1B
15
13
0\
0]
0C
0D
04
05
1\
1C
14
#150000
1!
1K
0:
0V
1R
1O
0L
1W
0U
0A
02
0\
0Y
0C
0B
04
03
1]
1D
15
#160000
1-
1+
0*
0)
1`
1T
0N
0J
1:
0e
1a
0[
0W
1V
0R
1L
0f
1_
1X
1W
0E
1A
06
12
0]
0p
0j
0a
0_
0X
0D
05
1\
1Y
1]
1a
1F
1E
1C
1B
1D
17
16
14
13
15
0\
0Y
0E
0C
0B
06
04
03
#180000
1"
0!
1M
0K
0:
0O
0L
0Z
0W
0A
02
1Y
1_
1X
1B
13
1\
0]
0a
1C
0D
14
05
0\
0Y
1E
0C
0B
16
04
03
#200000
1)
1J
1:
1L
1A
12
#210000
1!
1K
0:
0V
1R
1O
0L
1Z
0A
02
1\
1Y
1C
1B
14
13
0\
0C
04
#240000
1&
1$
0%
0#
1*
0"
0)
0!
1d
1Q
0^
0S
1N
0M
0J
0K
1:
1l
0g
1f
0_
1a
1[
1W
1V
0R
0O
1]
1p
1e
0a
0W
1U
0Z
0E
1D
06
15
1r
0]
0Y
0l
1g
0f
1_
0F
1E
1G
0D
0B
07
16
18
05
03
1\
0p
0e
1a
1C
14
0r
1l
0g
1f
1F
0E
0G
17
06
08
1p
1r
0F
1G
07
18
#270000
1!
1K
0:
1L
1A
12
#280000
1)
1J
1:
0V
1R
1O
0L
1W
0U
1Z
0A
02
0\
1Y
0_
0C
1B
04
13
1\
1e
0a
1C
14
0l
1g
0f
1E
16
0p
0r
1F
0G
17
08
#300000
0$
0!
0Q
0K
0:
0X
1V
0R
0O
1]
1L
0W
1U
0Z
1D
1A
15
12
1Z
0]
0\
0D
0C
05
04
1\
1C
14
#320000
1.
1,
0-
0+
0*
0)
1b
1P
0`
0T
0N
0J
1:
1l
0g
1f
1_
0Z
1X
1c
1a
0[
1O
0L
1p
0e
0a
1Z
1W
0E
0A
06
02
1r
0\
0_
0X
0F
1E
1G
0C
07
16
18
04
1\
1]
1e
1a
1C
1D
14
15
0\
0Y
0E
0C
0B
06
04
03
#360000
1%
1)
1^
1J
0:
0c
0a
1L
1E
1A
16
12
#400000
0,
0)
0P
0J
1:
0]
0L
0D
0A
05
02
#480000
1'
0&
1-
0%
1i
0d
1`
0^
0:
1q
0m
1j
0l
1g
0f
1m
0j
0p
1s
1F
1H
17
19
0s
0H
09
#510000
1!
1K
1:
1L
1A
12
#540000
1"
0!
1M
0K
0:
0O
0L
0W
0A
02
1Y
1B
13
#570000
1!
1K
1:
1L
1A
12
#600000
1#
1%
0"
0!
1S
1^
0M
0K
0:
1[
0e
1a
1O
0L
1l
0g
1f
0E
0A
06
02
1\
0Y
0m
1j
1p
1C
0B
14
03
0r
0F
0G
07
08
1s
1H
19
#630000
1!
1K
1:
1L
1A
12
#640000
1/
0.
0-
1h
0b
0`
0:
0q
0j
0l
1g
0f
1e
0a
0t
1o
0p
1f
1E
16
0s
1j
1I
1F
0H
11
17
09
1r
1t
0o
1G
18
1s
1p
0I
1H
01
19
0r
0F
0G
07
08
#660000
1"
0!
1M
0K
1:
0O
0L
0A
02
1Y
1B
13
#680000
1)
1J
0:
1L
1A
12
#690000
1!
1K
1:
0V
1R
1O
0L
1W
0U
0A
02
0\
0Y
0C
0B
04
03
1]
1D
15
#720000
1$
1*
1&
0#
0%
0"
0)
0!
1Q
1N
1d
0S
0^
0M
0J
0K
0:
1X
1V
0R
0O
0f
0[
0W
1U
1c
1a
0]
0Z
0p
0j
1_
0E
0D
06
05
1\
0t
1o
0e
0a
1F
1C
17
14
0\
0s
1p
1I
1E
0C
0H
11
16
04
09
0F
07
#750000
1!
1K
1:
1L
1A
12
#760000
1)
1J
0:
0V
1R
1O
0L
1Z
0A
02
1\
1Y
1C
1B
14
13
0\
0C
04
#780000
0$
0!
0Q
0K
1:
0_
0X
1V
0R
0O
1L
1e
1a
1A
12
0E
06
#800000
1+
1-
0*
0)
1T
1`
0N
0J
0:
1[
0c
0a
1O
0L
1E
0A
16
02
1\
0Y
1C
0B
14
03
#840000
1%
1)
1^
1J
1:
0e
1a
1L
1l
0g
1f
0E
1A
06
12
0p
1F
17
#880000
1*
0)
1N
0J
0:
0O
0L
0A
02
1Y
1B
13
#920000
1)
1J
1:
1L
1A
12
#960000
1(
1,
0'
1.
0&
0+
0-
0%
0*
0)
1k
1P
0i
1b
0d
0T
0`
0^
0N
0J
0:
1t
1_
0Z
1X
1q
1j
0[
1e
1c
1O
1s
0L
0e
0a
0l
1g
0f
1Z
1W
0I
1H
0A
01
19
02
0\
1r
0s
1m
0j
1p
0_
0X
1E
0C
1G
0H
16
04
18
09
1\
1]
0t
1e
1a
0F
1C
1D
07
14
15
0\
0Y
1I
0E
0C
0B
11
06
04
03
#990000
1!
1K
1:
1L
1A
12
