3/3/mux41/simulation/qsim/mux41.msim.vcd
$comment
	File created using the following command:
		vcd file mux41.msim.vcd -direction
$end
$date
	Thu Mar 21 17:15:00 2024
$end
$version
	ModelSim Version 10.1d
$end
$timescale
	1ps
$end
$scope module mux41_vlg_vec_tst $end
$var reg 1 ! A0 $end
$var reg 1 " A1 $end
$var reg 1 # D0 $end
$var reg 1 $ D1 $end
$var reg 1 % D2 $end
$var reg 1 & D3 $end
$var reg 1 ' En $end
$var wire 1 ( F $end
$var wire 1 ) sampler $end
$scope module i1 $end
$var wire 1 * gnd $end
$var wire 1 + vcc $end
$var wire 1 , unknown $end
$var tri1 1 - devclrn $end
$var tri1 1 . devpor $end
$var tri1 1 / devoe $end
$var wire 1 0 F~output_o $end
$var wire 1 1 En~input_o $end
$var wire 1 2 D1~input_o $end
$var wire 1 3 D0~input_o $end
$var wire 1 4 A0~input_o $end
$var wire 1 5 A1~input_o $end
$var wire 1 6 inst10~1_combout $end
$var wire 1 7 D3~input_o $end
$var wire 1 8 D2~input_o $end
$var wire 1 9 inst10~0_combout $end
$var wire 1 : inst10~2_combout $end
$upscope $end
$upscope $end
$enddefinitions $end
#0
$dumpvars
0!
0"
0#
0$
0%
0&
0'
0(
x)
0*
1+
x,
1-
1.
1/
00
01
02
03
04
05
06
07
08
09
1:
$end
#20000
1$
12
0)
#30000
1#
1&
13
17
1)
16
0:
10
1(
#35000
1%
18
0)
#40000
0$
02
1)
#60000
0#
0&
1$
03
07
12
0)
06
1:
00
0(
#70000
0%
08
1)
#80000
0$
02
0)
#90000
1#
1&
13
17
1)
16
0:
10
1(
#100000
1$
12
0)
#105000
1%
18
1)
#120000
1!
0#
0&
0$
14
03
07
02
0)
06
1:
00
0(
#140000
0%
1$
08
12
1)
16
0:
10
1(
#150000
1#
1&
13
17
0)
#160000
0$
02
1)
06
1:
00
0(
#175000
1%
18
0)
#180000
0#
0&
1$
03
07
12
1)
16
0:
10
1(
#200000
0$
02
0)
06
1:
00
0(
#210000
0%
1#
1&
08
13
17
1)
#220000
1$
12
0)
16
0:
10
1(
#240000
1"
0!
0#
0&
0$
15
04
03
07
02
1)
19
1:
00
0(
#245000
1%
18
0)
09
0:
10
1(
#260000
1$
12
1)
#270000
1#
1&
13
17
0)
#280000
0%
0$
08
02
1)
19
1:
00
0(
#300000
0#
0&
1$
03
07
12
0)
#315000
1%
18
1)
09
0:
10
1(
#320000
0$
02
0)
#330000
1#
1&
13
17
1)
#340000
1$
12
0)
#350000
0%
08
1)
19
1:
00
0(
#360000
1!
0#
0&
0$
14
03
07
02
0)
#380000
1$
12
1)
#385000
1%
18
0)
#390000
1#
1&
13
17
1)
09
0:
10
1(
#400000
0$
02
0)
#420000
0%
0#
0&
1$
08
03
07
12
1)
19
1:
00
0(
#440000
0$
02
0)
#450000
1#
1&
13
17
1)
09
0:
10
1(
#455000
1%
18
0)
#460000
1$
12
1)
#480000
0"
0!
0#
0&
0$
05
04
03
07
02
0)
06
1:
00
0(
#490000
0%
08
1)
#500000
1$
12
0)
#510000
1#
1&
13
17
1)
16
0:
10
1(
#520000
0$
02
0)
#525000
1%
18
1)
#540000
0#
0&
1$
03
07
12
0)
06
1:
00
0(
#560000
0%
0$
08
02
1)
#570000
1#
1&
13
17
0)
16
0:
10
1(
#580000
1'
1$
11
12
1)
1:
00
0(
#595000
1%
18
0)
#600000
1!
0#
0&
0$
14
03
07
02
1)
06
#620000
1$
12
0)
16
#630000
0%
1#
1&
08
13
17
1)
#640000
0$
02
0)
06
#660000
0#
0&
1$
03
07
12
1)
16
#665000
1%
18
0)
#680000
0$
02
1)
06
#690000
1#
1&
13
17
0)
#700000
0%
1$
08
12
1)
16
#720000
1"
0!
0#
0&
0$
15
04
03
07
02
0)
19
#735000
1%
18
1)
09
#740000
1$
12
0)
#750000
1#
1&
13
17
1)
#760000
0$
02
0)
#770000
0%
08
1)
19
#780000
0#
0&
1$
03
07
12
0)
#800000
0$
02
1)
#805000
1%
18
0)
09
#810000
1#
1&
13
17
1)
#820000
1$
12
0)
#840000
1!
0%
0#
0&
0$
14
08
03
07
02
1)
19
#860000
1$
12
0)
#870000
1#
1&
13
17
1)
09
#875000
1%
18
0)
#880000
0$
02
1)
#900000
0#
0&
1$
03
07
12
0)
19
#910000
0%
08
1)
#920000
0$
02
0)
#930000
1#
1&
13
17
1)
09
#940000
1$
12
0)
#945000
1%
18
1)
#960000
0"
0!
0#
0&
0$
05
04
03
07
02
0)
06
#980000
0%
1$
08
12
1)
#990000
1#
1&
13
17
0)
16
