2/sim7483/simulation/qsim/sim7483.msim.vcd
$comment
	File created using the following command:
		vcd file sim7483.msim.vcd -direction
$end
$date
	Thu Mar 14 18:14:51 2024
$end
$version
	ModelSim Version 10.1d
$end
$timescale
	1ps
$end
$scope module sim7483_vlg_vec_tst $end
$var reg 1 ! A1 $end
$var reg 1 " A2 $end
$var reg 1 # A3 $end
$var reg 1 $ A4 $end
$var reg 1 % B1 $end
$var reg 1 & B2 $end
$var reg 1 ' B3 $end
$var reg 1 ( B4 $end
$var reg 1 ) C0 $end
$var wire 1 * C4 $end
$var wire 1 + S1 $end
$var wire 1 , S2 $end
$var wire 1 - S3 $end
$var wire 1 . S4 $end
$var wire 1 / sampler $end
$scope module i1 $end
$var wire 1 0 gnd $end
$var wire 1 1 vcc $end
$var wire 1 2 unknown $end
$var tri1 1 3 devclrn $end
$var tri1 1 4 devpor $end
$var tri1 1 5 devoe $end
$var wire 1 6 S1~output_o $end
$var wire 1 7 S2~output_o $end
$var wire 1 8 S3~output_o $end
$var wire 1 9 S4~output_o $end
$var wire 1 : C4~output_o $end
$var wire 1 ; B1~input_o $end
$var wire 1 < C0~input_o $end
$var wire 1 = A1~input_o $end
$var wire 1 > inst|42~0_combout $end
$var wire 1 ? inst|54~0_combout $end
$var wire 1 @ inst|18~0_combout $end
$var wire 1 A A2~input_o $end
$var wire 1 B B2~input_o $end
$var wire 1 C inst|43~combout $end
$var wire 1 D inst|20~0_combout $end
$var wire 1 E inst|24~combout $end
$var wire 1 F inst|51~0_combout $end
$var wire 1 G B3~input_o $end
$var wire 1 H A3~input_o $end
$var wire 1 I inst|44~combout $end
$var wire 1 J A4~input_o $end
$var wire 1 K B4~input_o $end
$var wire 1 L inst|45~0_combout $end
$var wire 1 M inst|45~1_combout $end
$var wire 1 N inst|45~2_combout $end
$var wire 1 O inst|2~0_combout $end
$upscope $end
$upscope $end
$enddefinitions $end
#0
$dumpvars
0!
0"
0#
0$
0%
0&
0'
0(
0)
0*
0+
0,
0-
0.
x/
00
11
x2
13
14
15
06
07
08
09
0:
0;
0<
0=
0>
1?
1@
0A
0B
1C
1D
0E
1F
0G
0H
1I
0J
0K
0L
0M
0N
0O
$end
#10000
1!
1=
0/
0@
1>
16
1+
#20000
1"
1%
0!
1A
1;
0=
1/
0D
0C
1@
0?
17
1,
#30000
1!
1=
0/
1L
0@
0>
0F
1C
06
0+
0I
07
0,
18
1-
#40000
1#
1&
0"
0%
0!
1H
1B
0A
0;
0=
1/
1M
1I
0L
1@
1?
0M
1F
0C
08
0-
1N
0I
17
19
1,
1.
0N
18
09
1-
0.
#50000
1!
1=
0/
0@
1>
16
1+
#60000
1"
1%
0!
1A
1;
0=
1/
1E
1C
1@
0?
1L
0F
07
0,
1M
1I
08
0-
1N
19
1.
#70000
1!
1=
0/
0@
0>
0C
06
0+
17
1,
#80000
1$
1'
0#
0&
0"
0%
0!
1J
1G
0H
0B
0A
0;
0=
1/
0E
1D
1@
1?
1O
0N
0L
1F
0M
1C
1:
09
1*
0.
0I
07
0,
0O
1N
18
0:
19
1-
0*
1.
#90000
1!
1=
0/
0@
1>
16
1+
#100000
1"
1%
0!
1A
1;
0=
1/
0D
0C
1@
0?
17
1,
#110000
1!
1=
0/
1L
0@
0>
1M
0F
1C
06
0+
1I
07
0,
1O
0N
08
1:
09
0-
1*
0.
#120000
1#
1&
0"
0%
0!
1H
1B
0A
0;
0=
1/
0I
0L
1@
1?
1F
0C
18
1-
1I
17
1,
08
0-
#130000
1!
1=
0/
0@
1>
16
1+
#140000
1"
1%
0!
1A
1;
0=
1/
1E
1C
1@
0?
1L
0F
07
0,
0I
18
1-
#150000
1!
1=
0/
0@
0>
0C
06
0+
17
1,
#160000
1(
0$
0'
0#
0&
0"
0%
0!
1K
0J
0G
0H
0B
0A
0;
0=
1/
0M
0E
1D
1@
1?
0L
1F
1C
0O
1N
1I
07
0:
19
0,
0*
1.
08
0-
#170000
1!
1=
0/
0@
1>
16
1+
#180000
1"
1%
0!
1A
1;
0=
1/
0D
0C
1@
0?
17
1,
#190000
1!
1=
0/
1L
0@
0>
0F
1C
06
0+
0I
07
0,
18
1-
#200000
1#
1&
0"
0%
0!
1H
1B
0A
0;
0=
1/
1M
1I
0L
1@
1?
0M
1F
0C
08
0-
1O
0N
0I
17
1:
09
1,
1*
0.
0O
1N
18
0:
19
1-
0*
1.
#210000
1!
1=
0/
0@
1>
16
1+
#220000
1"
1%
0!
1A
1;
0=
1/
1E
1C
1@
0?
1L
0F
07
0,
1M
1I
08
0-
1O
0N
1:
09
1*
0.
#230000
1!
1=
0/
0@
0>
0C
06
0+
17
1,
#240000
1$
1'
0#
0&
0"
0%
0!
1J
1G
0H
0B
0A
0;
0=
1/
0E
1D
1@
1?
1N
0L
1F
0M
1C
19
1.
0I
07
0,
0N
18
09
1-
0.
#250000
1!
1=
0/
0@
1>
16
1+
#260000
1"
1%
0!
1A
1;
0=
1/
0D
0C
1@
0?
17
1,
#270000
1!
1=
0/
1L
0@
0>
1M
0F
1C
06
0+
1I
07
0,
1N
08
19
0-
1.
#280000
1#
1&
0"
0%
0!
1H
1B
0A
0;
0=
1/
0I
0L
1@
1?
1F
0C
18
1-
1I
17
1,
08
0-
#290000
1!
1=
0/
0@
1>
16
1+
#300000
1"
1%
0!
1A
1;
0=
1/
1E
1C
1@
0?
1L
0F
07
0,
0I
18
1-
#310000
1!
1=
0/
0@
0>
0C
06
0+
17
1,
#320000
0(
0$
0'
0#
0&
0"
0%
0!
0K
0J
0G
0H
0B
0A
0;
0=
1/
0M
0E
1D
1@
1?
0O
0L
1F
1C
0:
0*
0N
1I
07
09
0,
0.
08
0-
#330000
1!
1=
0/
0@
1>
16
1+
#340000
1"
1%
0!
1A
1;
0=
1/
0D
0C
1@
0?
17
1,
#350000
1!
1=
0/
1L
0@
0>
0F
1C
06
0+
0I
07
0,
18
1-
#360000
1#
1&
0"
0%
0!
1H
1B
0A
0;
0=
1/
1M
1I
0L
1@
1?
0M
1F
0C
08
0-
1N
0I
17
19
1,
1.
0N
18
09
1-
0.
#370000
1!
1=
0/
0@
1>
16
1+
#380000
1"
1%
0!
1A
1;
0=
1/
1E
1C
1@
0?
1L
0F
07
0,
1M
1I
08
0-
1N
19
1.
#390000
1!
1=
0/
0@
0>
0C
06
0+
17
1,
#400000
1$
1'
0#
0&
0"
0%
0!
1J
1G
0H
0B
0A
0;
0=
1/
0E
1D
1@
1?
1O
0N
0L
1F
0M
1C
1:
09
1*
0.
0I
07
0,
0O
1N
18
0:
19
1-
0*
1.
#410000
1!
1=
0/
0@
1>
16
1+
#420000
1"
1%
0!
1A
1;
0=
1/
0D
0C
1@
0?
17
1,
#430000
1!
1=
0/
1L
0@
0>
1M
0F
1C
06
0+
1I
07
0,
1O
0N
08
1:
09
0-
1*
0.
#440000
1#
1&
0"
0%
0!
1H
1B
0A
0;
0=
1/
0I
0L
1@
1?
1F
0C
18
1-
1I
17
1,
08
0-
#450000
1!
1=
0/
0@
1>
16
1+
#460000
1)
1"
1%
0!
1<
1A
1;
0=
1/
1L
0?
1E
1C
0>
0F
0C
07
06
0,
0+
0I
17
1,
18
1-
#470000
1!
1=
0/
1>
16
1+
#480000
1(
0$
0'
0#
0&
0"
0%
0!
1K
0J
0G
0H
0B
0A
0;
0=
1/
0M
0E
1D
1@
0L
1F
1C
0O
1N
1I
07
0:
19
0,
0*
1.
08
0-
#490000
1!
1=
0/
1L
0@
0>
0C
06
0+
17
1,
#500000
1"
1%
0!
1A
1;
0=
1/
0D
1C
0F
07
0,
0I
18
1-
#510000
1!
1=
0/
1>
16
1+
#520000
1#
1&
0"
0%
0!
1H
1B
0A
0;
0=
1/
1M
1I
0L
1@
0M
1F
0C
08
0-
1O
0N
0I
17
1:
09
1,
1*
0.
0O
1N
18
0:
19
1-
0*
1.
#530000
1!
1=
0/
1L
0@
0>
1M
0F
1C
06
0+
1I
07
0,
1O
0N
08
1:
09
0-
1*
0.
#540000
1"
1%
0!
1A
1;
0=
1/
1E
0C
17
1,
#550000
1!
1=
0/
1>
16
1+
#560000
1$
1'
0#
0&
0"
0%
0!
1J
1G
0H
0B
0A
0;
0=
1/
0E
1D
1@
1N
0L
1F
0M
1C
19
1.
0I
07
0,
0N
18
09
1-
0.
#570000
1!
1=
0/
1L
0@
0>
0C
06
0+
17
1,
#580000
1"
1%
0!
1A
1;
0=
1/
0D
1C
1M
0F
07
0,
1I
1N
08
19
0-
1.
#590000
1!
1=
0/
1>
16
1+
#600000
1#
1&
0"
0%
0!
1H
1B
0A
0;
0=
1/
0I
0L
1@
1F
0C
18
1-
1I
17
1,
08
0-
#610000
1!
1=
0/
1L
0@
0>
0F
1C
06
0+
0I
07
0,
18
1-
#620000
1"
1%
0!
1A
1;
0=
1/
1E
0C
17
1,
#630000
1!
1=
0/
1>
16
1+
#640000
0(
0$
0'
0#
0&
0"
0%
0!
0K
0J
0G
0H
0B
0A
0;
0=
1/
0M
0E
1D
1@
0O
0L
1F
1C
0:
0*
0N
1I
07
09
0,
0.
08
0-
#650000
1!
1=
0/
1L
0@
0>
0C
06
0+
17
1,
#660000
1"
1%
0!
1A
1;
0=
1/
0D
1C
0F
07
0,
0I
18
1-
#670000
1!
1=
0/
1>
16
1+
#680000
1#
1&
0"
0%
0!
1H
1B
0A
0;
0=
1/
1M
1I
0L
1@
0M
1F
0C
08
0-
1N
0I
17
19
1,
1.
0N
18
09
1-
0.
#690000
1!
1=
0/
1L
0@
0>
1M
0F
1C
06
0+
1I
07
0,
1N
08
19
0-
1.
#700000
1"
1%
0!
1A
1;
0=
1/
1E
0C
17
1,
#710000
1!
1=
0/
1>
16
1+
#720000
1$
1'
0#
0&
0"
0%
0!
1J
1G
0H
0B
0A
0;
0=
1/
0E
1D
1@
1O
0N
0L
1F
0M
1C
1:
09
1*
0.
0I
07
0,
0O
1N
18
0:
19
1-
0*
1.
#730000
1!
1=
0/
1L
0@
0>
0C
06
0+
17
1,
#740000
1"
1%
0!
1A
1;
0=
1/
0D
1C
1M
0F
07
0,
1I
1O
0N
08
1:
09
0-
1*
0.
#750000
1!
1=
0/
1>
16
1+
#760000
1#
1&
0"
0%
0!
1H
1B
0A
0;
0=
1/
0I
0L
1@
1F
0C
18
1-
1I
17
1,
08
0-
#770000
1!
1=
0/
1L
0@
0>
0F
1C
06
0+
0I
07
0,
18
1-
#780000
1"
1%
0!
1A
1;
0=
1/
1E
0C
17
1,
#790000
1!
1=
0/
1>
16
1+
#800000
1(
0$
0'
0#
0&
0"
0%
0!
1K
0J
0G
0H
0B
0A
0;
0=
1/
0M
0E
1D
1@
0L
1F
1C
0O
1N
1I
07
0:
19
0,
0*
1.
08
0-
#810000
1!
1=
0/
1L
0@
0>
0C
06
0+
17
1,
#820000
1"
1%
0!
1A
1;
0=
1/
0D
1C
0F
07
0,
0I
18
1-
#830000
1!
1=
0/
1>
16
1+
#840000
1#
1&
0"
0%
0!
1H
1B
0A
0;
0=
1/
1M
1I
0L
1@
0M
1F
0C
08
0-
1O
0N
0I
17
1:
09
1,
1*
0.
0O
1N
18
0:
19
1-
0*
1.
#850000
1!
1=
0/
1L
0@
0>
1M
0F
1C
06
0+
1I
07
0,
1O
0N
08
1:
09
0-
1*
0.
#860000
1"
1%
0!
1A
1;
0=
1/
1E
0C
17
1,
#870000
1!
1=
0/
1>
16
1+
#880000
1$
1'
0#
0&
0"
0%
0!
1J
1G
0H
0B
0A
0;
0=
1/
0E
1D
1@
1N
0L
1F
0M
1C
19
1.
0I
07
0,
0N
18
09
1-
0.
#890000
1!
1=
0/
1L
0@
0>
0C
06
0+
17
1,
#900000
1"
1%
0!
1A
1;
0=
1/
0D
1C
1M
0F
07
0,
1I
1N
08
19
0-
1.
#910000
1!
1=
0/
1>
16
1+
#920000
1#
1&
0"
0%
0!
1H
1B
0A
0;
0=
1/
0I
0L
1@
1F
0C
18
1-
1I
17
1,
08
0-
#930000
1!
1=
0/
1L
0@
0>
0F
1C
06
0+
0I
07
0,
18
1-
#940000
1"
1%
0!
1A
1;
0=
1/
1E
0C
17
1,
#950000
1!
1=
0/
1>
16
1+
#960000
0(
0$
0'
0#
0&
0"
0%
0!
0K
0J
0G
0H
0B
0A
0;
0=
1/
0M
0E
1D
1@
0O
0L
1F
1C
0:
0*
0N
1I
07
09
0,
0.
08
0-
#970000
1!
1=
0/
1L
0@
0>
0C
06
0+
17
1,
#980000
0)
1"
1%
0!
0<
1A
1;
0=
1/
0L
1@
0D
1C
1>
0C
07
16
0,
1+
17
1,
#990000
1!
1=
0/
1L
0@
0>
0F
1C
06
0+
0I
07
0,
18
1-
