3/3/demux14/simulation/qsim/demux14.msim.vcd
$comment
	File created using the following command:
		vcd file demux14.msim.vcd -direction
$end
$date
	Thu Mar 21 17:18:54 2024
$end
$version
	ModelSim Version 10.1d
$end
$timescale
	1ps
$end
$scope module demux14_vlg_vec_tst $end
$var reg 1 ! A0 $end
$var reg 1 " A1 $end
$var reg 1 # Din $end
$var reg 1 $ E $end
$var wire 1 % Y0 $end
$var wire 1 & Y1 $end
$var wire 1 ' Y2 $end
$var wire 1 ( Y3 $end
$var wire 1 ) sampler $end
$scope module i1 $end
$var wire 1 * gnd $end
$var wire 1 + vcc $end
$var wire 1 , unknown $end
$var tri1 1 - devclrn $end
$var tri1 1 . devpor $end
$var tri1 1 / devoe $end
$var wire 1 0 Y3~output_o $end
$var wire 1 1 Y2~output_o $end
$var wire 1 2 Y1~output_o $end
$var wire 1 3 Y0~output_o $end
$var wire 1 4 Din~input_o $end
$var wire 1 5 A1~input_o $end
$var wire 1 6 E~input_o $end
$var wire 1 7 A0~input_o $end
$var wire 1 8 inst~combout $end
$var wire 1 9 inst1~combout $end
$var wire 1 : inst2~combout $end
$var wire 1 ; inst3~combout $end
$upscope $end
$upscope $end
$enddefinitions $end
#0
$dumpvars
0!
0"
0#
0$
0%
1&
1'
1(
x)
0*
1+
x,
1-
1.
1/
10
11
12
03
04
05
06
07
08
09
0:
1;
$end
#30000
1#
14
0)
0;
13
1%
#60000
0#
04
1)
1;
03
0%
#90000
1#
14
0)
0;
13
1%
#120000
1!
0#
17
04
1)
1:
02
0&
#150000
1#
14
0)
0:
12
1&
#180000
0#
04
1)
1:
02
0&
#210000
1#
14
0)
0:
12
1&
#240000
1"
0!
0#
15
07
04
1)
19
01
0'
#270000
1#
14
0)
09
11
1'
#300000
0#
04
1)
19
01
0'
#330000
1#
14
0)
09
11
1'
#360000
1!
0#
17
04
1)
18
00
0(
#390000
1#
14
0)
08
10
1(
#420000
0#
04
1)
18
00
0(
#450000
1#
14
0)
08
10
1(
#480000
0"
0!
0#
05
07
04
1)
1;
03
0%
#500000
1$
16
0)
0;
13
1%
#510000
1#
14
1)
#540000
0#
04
0)
#570000
1#
14
1)
#600000
1!
0#
17
04
0)
#630000
1#
14
1)
#660000
0#
04
0)
#690000
1#
14
1)
#720000
1"
0!
0#
15
07
04
0)
#750000
1#
14
1)
#780000
0#
04
0)
#810000
1#
14
1)
#840000
1!
0#
17
04
0)
#870000
1#
14
1)
#900000
0#
04
0)
#930000
1#
14
1)
#960000
0"
0!
0#
05
07
04
0)
#990000
1#
14
1)
