6/6/matrix/simulation/qsim/matrix.msim.vcd
$comment
	File created using the following command:
		vcd file matrix.msim.vcd -direction
$end
$date
	Thu Apr 18 16:54:09 2024
$end
$version
	ModelSim Version 10.1d
$end
$timescale
	1ps
$end
$scope module matrix_vlg_vec_tst $end
$var reg 1 ! CLK $end
$var wire 1 " COL1 $end
$var wire 1 # COL2 $end
$var wire 1 $ COL3 $end
$var wire 1 % COL4 $end
$var wire 1 & COL5 $end
$var wire 1 ' COL6 $end
$var wire 1 ( COL7 $end
$var wire 1 ) COL8 $end
$var wire 1 * ROW1 $end
$var wire 1 + ROW2 $end
$var wire 1 , ROW3 $end
$var wire 1 - ROW4 $end
$var wire 1 . ROW5 $end
$var wire 1 / ROW6 $end
$var wire 1 0 ROW7 $end
$var wire 1 1 ROW8 $end
$var wire 1 2 sampler $end
$scope module i1 $end
$var wire 1 3 gnd $end
$var wire 1 4 vcc $end
$var wire 1 5 unknown $end
$var tri1 1 6 devclrn $end
$var tri1 1 7 devpor $end
$var tri1 1 8 devoe $end
$var wire 1 9 ROW1~output_o $end
$var wire 1 : ROW2~output_o $end
$var wire 1 ; ROW3~output_o $end
$var wire 1 < ROW4~output_o $end
$var wire 1 = ROW5~output_o $end
$var wire 1 > ROW6~output_o $end
$var wire 1 ? ROW7~output_o $end
$var wire 1 @ ROW8~output_o $end
$var wire 1 A COL1~output_o $end
$var wire 1 B COL2~output_o $end
$var wire 1 C COL3~output_o $end
$var wire 1 D COL4~output_o $end
$var wire 1 E COL5~output_o $end
$var wire 1 F COL6~output_o $end
$var wire 1 G COL7~output_o $end
$var wire 1 H COL8~output_o $end
$var wire 1 I CLK~input_o $end
$var wire 1 J CLK~inputclkctrl_outclk $end
$var wire 1 K inst|15~0_combout $end
$var wire 1 L inst|15~q $end
$var wire 1 M inst8|sub|81~1_combout $end
$var wire 1 N inst|14~q $end
$var wire 1 O inst|13~0_combout $end
$var wire 1 P inst|13~q $end
$var wire 1 Q inst5|15~0_combout $end
$var wire 1 R inst5|15~1_combout $end
$var wire 1 S inst5|15~2_combout $end
$var wire 1 T inst5|15~3_combout $end
$var wire 1 U inst5|15~4_combout $end
$var wire 1 V inst5|15~5_combout $end
$var wire 1 W inst5|15~6_combout $end
$var wire 1 X inst5|15~7_combout $end
$var wire 1 Y inst3|sub|81~0_combout $end
$var wire 1 Z inst4|sub|81~0_combout $end
$var wire 1 [ inst6|sub|81~0_combout $end
$var wire 1 \ inst8|sub|81~0_combout $end
$var wire 1 ] inst17|sub|81~0_combout $end
$var wire 1 ^ inst18|sub|81~0_combout $end
$upscope $end
$upscope $end
$enddefinitions $end
#0
$dumpvars
0!
1"
1#
0$
0%
0&
0'
1(
1)
1*
0+
0,
0-
0.
0/
00
01
x2
03
14
x5
16
17
18
19
0:
0;
0<
0=
0>
0?
0@
1A
1B
0C
0D
0E
0F
1G
1H
0I
0J
1K
0L
0M
0N
0O
0P
1Q
0R
0S
0T
0U
0V
0W
0X
0Y
1Z
0[
0\
0]
1^
$end
#5000
1!
1I
1J
02
#10000
0!
0I
0J
12
1L
1]
1M
0K
1\
1[
0Z
1R
0Q
0G
1F
1E
1D
1C
0B
1:
09
0(
1'
1&
1%
1$
0#
1+
0*
#15000
1!
1I
1J
02
#20000
0!
0I
0J
12
0L
1N
0]
1K
1Y
0^
1Z
1S
0R
1G
0A
0H
1B
1;
0:
1(
0"
0)
1#
1,
0+
#25000
1!
1I
1J
02
#30000
0!
0I
0J
12
1L
1O
0M
0K
1^
1T
0S
1H
1<
0;
1)
1-
0,
#35000
1!
1I
1J
02
#40000
0!
0I
0J
12
0L
0N
1P
1]
1K
0^
0\
1U
0T
0G
0H
0F
0E
1=
0<
0(
0)
0'
0&
1.
0-
#45000
1!
1I
1J
02
#50000
0!
0I
0J
12
1L
0]
1M
0K
1\
1V
0U
1G
1F
1E
1>
0=
1(
1'
1&
1/
0.
#55000
1!
1I
1J
02
#60000
0!
0I
0J
12
0L
1N
1]
1K
0Y
1^
0Z
1W
0V
0G
1A
1H
0B
1?
0>
0(
1"
1)
0#
10
0/
#65000
1!
1I
1J
02
#70000
0!
0I
0J
12
1L
0]
0O
0M
0K
0^
0\
0[
1Z
1X
0W
1G
0H
0F
0E
0D
0C
1B
1@
0?
1(
0)
0'
0&
0%
0$
1#
11
00
#75000
1!
1I
1J
02
#80000
0!
0I
0J
12
0L
0N
0P
1K
1^
0X
1Q
1H
0@
19
1)
01
1*
#85000
1!
1I
1J
02
#90000
0!
0I
0J
12
1L
1]
1M
0K
1\
1[
0Z
1R
0Q
0G
1F
1E
1D
1C
0B
1:
09
0(
1'
1&
1%
1$
0#
1+
0*
#95000
1!
1I
1J
02
#100000
0!
0I
0J
12
0L
1N
0]
1K
1Y
0^
1Z
1S
0R
1G
0A
0H
1B
1;
0:
1(
0"
0)
1#
1,
0+
#105000
1!
1I
1J
02
#110000
0!
0I
0J
12
1L
1O
0M
0K
1^
1T
0S
1H
1<
0;
1)
1-
0,
#115000
1!
1I
1J
02
#120000
0!
0I
0J
12
0L
0N
1P
1]
1K
0^
0\
1U
0T
0G
0H
0F
0E
1=
0<
0(
0)
0'
0&
1.
0-
#125000
1!
1I
1J
02
#130000
0!
0I
0J
12
1L
0]
1M
0K
1\
1V
0U
1G
1F
1E
1>
0=
1(
1'
1&
1/
0.
#135000
1!
1I
1J
02
#140000
0!
0I
0J
12
0L
1N
1]
1K
0Y
1^
0Z
1W
0V
0G
1A
1H
0B
1?
0>
0(
1"
1)
0#
10
0/
#145000
1!
1I
1J
02
#150000
0!
0I
0J
12
1L
0]
0O
0M
0K
0^
0\
0[
1Z
1X
0W
1G
0H
0F
0E
0D
0C
1B
1@
0?
1(
0)
0'
0&
0%
0$
1#
11
00
#155000
1!
1I
1J
02
#160000
0!
0I
0J
12
0L
0N
0P
1K
1^
0X
1Q
1H
0@
19
1)
01
1*
#165000
1!
1I
1J
02
#170000
0!
0I
0J
12
1L
1]
1M
0K
1\
1[
0Z
1R
0Q
0G
1F
1E
1D
1C
0B
1:
09
0(
1'
1&
1%
1$
0#
1+
0*
#175000
1!
1I
1J
02
#180000
0!
0I
0J
12
0L
1N
0]
1K
1Y
0^
1Z
1S
0R
1G
0A
0H
1B
1;
0:
1(
0"
0)
1#
1,
0+
#185000
1!
1I
1J
02
#190000
0!
0I
0J
12
1L
1O
0M
0K
1^
1T
0S
1H
1<
0;
1)
1-
0,
#195000
1!
1I
1J
02
#200000
0!
0I
0J
12
0L
0N
1P
1]
1K
0^
0\
1U
0T
0G
0H
0F
0E
1=
0<
0(
0)
0'
0&
1.
0-
#205000
1!
1I
1J
02
#210000
0!
0I
0J
12
1L
0]
1M
0K
1\
1V
0U
1G
1F
1E
1>
0=
1(
1'
1&
1/
0.
#215000
1!
1I
1J
02
#220000
0!
0I
0J
12
0L
1N
1]
1K
0Y
1^
0Z
1W
0V
0G
1A
1H
0B
1?
0>
0(
1"
1)
0#
10
0/
#225000
1!
1I
1J
02
#230000
0!
0I
0J
12
1L
0]
0O
0M
0K
0^
0\
0[
1Z
1X
0W
1G
0H
0F
0E
0D
0C
1B
1@
0?
1(
0)
0'
0&
0%
0$
1#
11
00
#235000
1!
1I
1J
02
#240000
0!
0I
0J
12
0L
0N
0P
1K
1^
0X
1Q
1H
0@
19
1)
01
1*
#245000
1!
1I
1J
02
#250000
0!
0I
0J
12
1L
1]
1M
0K
1\
1[
0Z
1R
0Q
0G
1F
1E
1D
1C
0B
1:
09
0(
1'
1&
1%
1$
0#
1+
0*
#255000
1!
1I
1J
02
#260000
0!
0I
0J
12
0L
1N
0]
1K
1Y
0^
1Z
1S
0R
1G
0A
0H
1B
1;
0:
1(
0"
0)
1#
1,
0+
#265000
1!
1I
1J
02
#270000
0!
0I
0J
12
1L
1O
0M
0K
1^
1T
0S
1H
1<
0;
1)
1-
0,
#275000
1!
1I
1J
02
#280000
0!
0I
0J
12
0L
0N
1P
1]
1K
0^
0\
1U
0T
0G
0H
0F
0E
1=
0<
0(
0)
0'
0&
1.
0-
#285000
1!
1I
1J
02
#290000
0!
0I
0J
12
1L
0]
1M
0K
1\
1V
0U
1G
1F
1E
1>
0=
1(
1'
1&
1/
0.
#295000
1!
1I
1J
02
#300000
0!
0I
0J
12
0L
1N
1]
1K
0Y
1^
0Z
1W
0V
0G
1A
1H
0B
1?
0>
0(
1"
1)
0#
10
0/
#305000
1!
1I
1J
02
#310000
0!
0I
0J
12
1L
0]
0O
0M
0K
0^
0\
0[
1Z
1X
0W
1G
0H
0F
0E
0D
0C
1B
1@
0?
1(
0)
0'
0&
0%
0$
1#
11
00
#315000
1!
1I
1J
02
#320000
0!
0I
0J
12
0L
0N
0P
1K
1^
0X
1Q
1H
0@
19
1)
01
1*
#325000
1!
1I
1J
02
#330000
0!
0I
0J
12
1L
1]
1M
0K
1\
1[
0Z
1R
0Q
0G
1F
1E
1D
1C
0B
1:
09
0(
1'
1&
1%
1$
0#
1+
0*
#335000
1!
1I
1J
02
#340000
0!
0I
0J
12
0L
1N
0]
1K
1Y
0^
1Z
1S
0R
1G
0A
0H
1B
1;
0:
1(
0"
0)
1#
1,
0+
#345000
1!
1I
1J
02
#350000
0!
0I
0J
12
1L
1O
0M
0K
1^
1T
0S
1H
1<
0;
1)
1-
0,
#355000
1!
1I
1J
02
#360000
0!
0I
0J
12
0L
0N
1P
1]
1K
0^
0\
1U
0T
0G
0H
0F
0E
1=
0<
0(
0)
0'
0&
1.
0-
#365000
1!
1I
1J
02
#370000
0!
0I
0J
12
1L
0]
1M
0K
1\
1V
0U
1G
1F
1E
1>
0=
1(
1'
1&
1/
0.
#375000
1!
1I
1J
02
#380000
0!
0I
0J
12
0L
1N
1]
1K
0Y
1^
0Z
1W
0V
0G
1A
1H
0B
1?
0>
0(
1"
1)
0#
10
0/
#385000
1!
1I
1J
02
#390000
0!
0I
0J
12
1L
0]
0O
0M
0K
0^
0\
0[
1Z
1X
0W
1G
0H
0F
0E
0D
0C
1B
1@
0?
1(
0)
0'
0&
0%
0$
1#
11
00
#395000
1!
1I
1J
02
#400000
0!
0I
0J
12
0L
0N
0P
1K
1^
0X
1Q
1H
0@
19
1)
01
1*
#405000
1!
1I
1J
02
#410000
0!
0I
0J
12
1L
1]
1M
0K
1\
1[
0Z
1R
0Q
0G
1F
1E
1D
1C
0B
1:
09
0(
1'
1&
1%
1$
0#
1+
0*
#415000
1!
1I
1J
02
#420000
0!
0I
0J
12
0L
1N
0]
1K
1Y
0^
1Z
1S
0R
1G
0A
0H
1B
1;
0:
1(
0"
0)
1#
1,
0+
#425000
1!
1I
1J
02
#430000
0!
0I
0J
12
1L
1O
0M
0K
1^
1T
0S
1H
1<
0;
1)
1-
0,
#435000
1!
1I
1J
02
#440000
0!
0I
0J
12
0L
0N
1P
1]
1K
0^
0\
1U
0T
0G
0H
0F
0E
1=
0<
0(
0)
0'
0&
1.
0-
#445000
1!
1I
1J
02
#450000
0!
0I
0J
12
1L
0]
1M
0K
1\
1V
0U
1G
1F
1E
1>
0=
1(
1'
1&
1/
0.
#455000
1!
1I
1J
02
#460000
0!
0I
0J
12
0L
1N
1]
1K
0Y
1^
0Z
1W
0V
0G
1A
1H
0B
1?
0>
0(
1"
1)
0#
10
0/
#465000
1!
1I
1J
02
#470000
0!
0I
0J
12
1L
0]
0O
0M
0K
0^
0\
0[
1Z
1X
0W
1G
0H
0F
0E
0D
0C
1B
1@
0?
1(
0)
0'
0&
0%
0$
1#
11
00
#475000
1!
1I
1J
02
#480000
0!
0I
0J
12
0L
0N
0P
1K
1^
0X
1Q
1H
0@
19
1)
01
1*
#485000
1!
1I
1J
02
#490000
0!
0I
0J
12
1L
1]
1M
0K
1\
1[
0Z
1R
0Q
0G
1F
1E
1D
1C
0B
1:
09
0(
1'
1&
1%
1$
0#
1+
0*
#495000
1!
1I
1J
02
#500000
0!
0I
0J
12
0L
1N
0]
1K
1Y
0^
1Z
1S
0R
1G
0A
0H
1B
1;
0:
1(
0"
0)
1#
1,
0+
#505000
1!
1I
1J
02
#510000
0!
0I
0J
12
1L
1O
0M
0K
1^
1T
0S
1H
1<
0;
1)
1-
0,
#515000
1!
1I
1J
02
#520000
0!
0I
0J
12
0L
0N
1P
1]
1K
0^
0\
1U
0T
0G
0H
0F
0E
1=
0<
0(
0)
0'
0&
1.
0-
#525000
1!
1I
1J
02
#530000
0!
0I
0J
12
1L
0]
1M
0K
1\
1V
0U
1G
1F
1E
1>
0=
1(
1'
1&
1/
0.
#535000
1!
1I
1J
02
#540000
0!
0I
0J
12
0L
1N
1]
1K
0Y
1^
0Z
1W
0V
0G
1A
1H
0B
1?
0>
0(
1"
1)
0#
10
0/
#545000
1!
1I
1J
02
#550000
0!
0I
0J
12
1L
0]
0O
0M
0K
0^
0\
0[
1Z
1X
0W
1G
0H
0F
0E
0D
0C
1B
1@
0?
1(
0)
0'
0&
0%
0$
1#
11
00
#555000
1!
1I
1J
02
#560000
0!
0I
0J
12
0L
0N
0P
1K
1^
0X
1Q
1H
0@
19
1)
01
1*
#565000
1!
1I
1J
02
#570000
0!
0I
0J
12
1L
1]
1M
0K
1\
1[
0Z
1R
0Q
0G
1F
1E
1D
1C
0B
1:
09
0(
1'
1&
1%
1$
0#
1+
0*
#575000
1!
1I
1J
02
#580000
0!
0I
0J
12
0L
1N
0]
1K
1Y
0^
1Z
1S
0R
1G
0A
0H
1B
1;
0:
1(
0"
0)
1#
1,
0+
#585000
1!
1I
1J
02
#590000
0!
0I
0J
12
1L
1O
0M
0K
1^
1T
0S
1H
1<
0;
1)
1-
0,
#595000
1!
1I
1J
02
#600000
0!
0I
0J
12
0L
0N
1P
1]
1K
0^
0\
1U
0T
0G
0H
0F
0E
1=
0<
0(
0)
0'
0&
1.
0-
#605000
1!
1I
1J
02
#610000
0!
0I
0J
12
1L
0]
1M
0K
1\
1V
0U
1G
1F
1E
1>
0=
1(
1'
1&
1/
0.
#615000
1!
1I
1J
02
#620000
0!
0I
0J
12
0L
1N
1]
1K
0Y
1^
0Z
1W
0V
0G
1A
1H
0B
1?
0>
0(
1"
1)
0#
10
0/
#625000
1!
1I
1J
02
#630000
0!
0I
0J
12
1L
0]
0O
0M
0K
0^
0\
0[
1Z
1X
0W
1G
0H
0F
0E
0D
0C
1B
1@
0?
1(
0)
0'
0&
0%
0$
1#
11
00
#635000
1!
1I
1J
02
#640000
0!
0I
0J
12
0L
0N
0P
1K
1^
0X
1Q
1H
0@
19
1)
01
1*
#645000
1!
1I
1J
02
#650000
0!
0I
0J
12
1L
1]
1M
0K
1\
1[
0Z
1R
0Q
0G
1F
1E
1D
1C
0B
1:
09
0(
1'
1&
1%
1$
0#
1+
0*
#655000
1!
1I
1J
02
#660000
0!
0I
0J
12
0L
1N
0]
1K
1Y
0^
1Z
1S
0R
1G
0A
0H
1B
1;
0:
1(
0"
0)
1#
1,
0+
#665000
1!
1I
1J
02
#670000
0!
0I
0J
12
1L
1O
0M
0K
1^
1T
0S
1H
1<
0;
1)
1-
0,
#675000
1!
1I
1J
02
#680000
0!
0I
0J
12
0L
0N
1P
1]
1K
0^
0\
1U
0T
0G
0H
0F
0E
1=
0<
0(
0)
0'
0&
1.
0-
#685000
1!
1I
1J
02
#690000
0!
0I
0J
12
1L
0]
1M
0K
1\
1V
0U
1G
1F
1E
1>
0=
1(
1'
1&
1/
0.
#695000
1!
1I
1J
02
#700000
0!
0I
0J
12
0L
1N
1]
1K
0Y
1^
0Z
1W
0V
0G
1A
1H
0B
1?
0>
0(
1"
1)
0#
10
0/
#705000
1!
1I
1J
02
#710000
0!
0I
0J
12
1L
0]
0O
0M
0K
0^
0\
0[
1Z
1X
0W
1G
0H
0F
0E
0D
0C
1B
1@
0?
1(
0)
0'
0&
0%
0$
1#
11
00
#715000
1!
1I
1J
02
#720000
0!
0I
0J
12
0L
0N
0P
1K
1^
0X
1Q
1H
0@
19
1)
01
1*
#725000
1!
1I
1J
02
#730000
0!
0I
0J
12
1L
1]
1M
0K
1\
1[
0Z
1R
0Q
0G
1F
1E
1D
1C
0B
1:
09
0(
1'
1&
1%
1$
0#
1+
0*
#735000
1!
1I
1J
02
#740000
0!
0I
0J
12
0L
1N
0]
1K
1Y
0^
1Z
1S
0R
1G
0A
0H
1B
1;
0:
1(
0"
0)
1#
1,
0+
#745000
1!
1I
1J
02
#750000
0!
0I
0J
12
1L
1O
0M
0K
1^
1T
0S
1H
1<
0;
1)
1-
0,
#755000
1!
1I
1J
02
#760000
0!
0I
0J
12
0L
0N
1P
1]
1K
0^
0\
1U
0T
0G
0H
0F
0E
1=
0<
0(
0)
0'
0&
1.
0-
#765000
1!
1I
1J
02
#770000
0!
0I
0J
12
1L
0]
1M
0K
1\
1V
0U
1G
1F
1E
1>
0=
1(
1'
1&
1/
0.
#775000
1!
1I
1J
02
#780000
0!
0I
0J
12
0L
1N
1]
1K
0Y
1^
0Z
1W
0V
0G
1A
1H
0B
1?
0>
0(
1"
1)
0#
10
0/
#785000
1!
1I
1J
02
#790000
0!
0I
0J
12
1L
0]
0O
0M
0K
0^
0\
0[
1Z
1X
0W
1G
0H
0F
0E
0D
0C
1B
1@
0?
1(
0)
0'
0&
0%
0$
1#
11
00
#795000
1!
1I
1J
02
#800000
0!
0I
0J
12
0L
0N
0P
1K
1^
0X
1Q
1H
0@
19
1)
01
1*
#805000
1!
1I
1J
02
#810000
0!
0I
0J
12
1L
1]
1M
0K
1\
1[
0Z
1R
0Q
0G
1F
1E
1D
1C
0B
1:
09
0(
1'
1&
1%
1$
0#
1+
0*
#815000
1!
1I
1J
02
#820000
0!
0I
0J
12
0L
1N
0]
1K
1Y
0^
1Z
1S
0R
1G
0A
0H
1B
1;
0:
1(
0"
0)
1#
1,
0+
#825000
1!
1I
1J
02
#830000
0!
0I
0J
12
1L
1O
0M
0K
1^
1T
0S
1H
1<
0;
1)
1-
0,
#835000
1!
1I
1J
02
#840000
0!
0I
0J
12
0L
0N
1P
1]
1K
0^
0\
1U
0T
0G
0H
0F
0E
1=
0<
0(
0)
0'
0&
1.
0-
#845000
1!
1I
1J
02
#850000
0!
0I
0J
12
1L
0]
1M
0K
1\
1V
0U
1G
1F
1E
1>
0=
1(
1'
1&
1/
0.
#855000
1!
1I
1J
02
#860000
0!
0I
0J
12
0L
1N
1]
1K
0Y
1^
0Z
1W
0V
0G
1A
1H
0B
1?
0>
0(
1"
1)
0#
10
0/
#865000
1!
1I
1J
02
#870000
0!
0I
0J
12
1L
0]
0O
0M
0K
0^
0\
0[
1Z
1X
0W
1G
0H
0F
0E
0D
0C
1B
1@
0?
1(
0)
0'
0&
0%
0$
1#
11
00
#875000
1!
1I
1J
02
#880000
0!
0I
0J
12
0L
0N
0P
1K
1^
0X
1Q
1H
0@
19
1)
01
1*
#885000
1!
1I
1J
02
#890000
0!
0I
0J
12
1L
1]
1M
0K
1\
1[
0Z
1R
0Q
0G
1F
1E
1D
1C
0B
1:
09
0(
1'
1&
1%
1$
0#
1+
0*
#895000
1!
1I
1J
02
#900000
0!
0I
0J
12
0L
1N
0]
1K
1Y
0^
1Z
1S
0R
1G
0A
0H
1B
1;
0:
1(
0"
0)
1#
1,
0+
#905000
1!
1I
1J
02
#910000
0!
0I
0J
12
1L
1O
0M
0K
1^
1T
0S
1H
1<
0;
1)
1-
0,
#915000
1!
1I
1J
02
#920000
0!
0I
0J
12
0L
0N
1P
1]
1K
0^
0\
1U
0T
0G
0H
0F
0E
1=
0<
0(
0)
0'
0&
1.
0-
#925000
1!
1I
1J
02
#930000
0!
0I
0J
12
1L
0]
1M
0K
1\
1V
0U
1G
1F
1E
1>
0=
1(
1'
1&
1/
0.
#935000
1!
1I
1J
02
#940000
0!
0I
0J
12
0L
1N
1]
1K
0Y
1^
0Z
1W
0V
0G
1A
1H
0B
1?
0>
0(
1"
1)
0#
10
0/
#945000
1!
1I
1J
02
#950000
0!
0I
0J
12
1L
0]
0O
0M
0K
0^
0\
0[
1Z
1X
0W
1G
0H
0F
0E
0D
0C
1B
1@
0?
1(
0)
0'
0&
0%
0$
1#
11
00
#955000
1!
1I
1J
02
#960000
0!
0I
0J
12
0L
0N
0P
1K
1^
0X
1Q
1H
0@
19
1)
01
1*
#965000
1!
1I
1J
02
#970000
0!
0I
0J
12
1L
1]
1M
0K
1\
1[
0Z
1R
0Q
0G
1F
1E
1D
1C
0B
1:
09
0(
1'
1&
1%
1$
0#
1+
0*
#975000
1!
1I
1J
02
#980000
0!
0I
0J
12
0L
1N
0]
1K
1Y
0^
1Z
1S
0R
1G
0A
0H
1B
1;
0:
1(
0"
0)
1#
1,
0+
#985000
1!
1I
1J
02
#990000
0!
0I
0J
12
1L
1O
0M
0K
1^
1T
0S
1H
1<
0;
1)
1-
0,
#995000
1!
1I
1J
02
