4/jksim/simulation/qsim/jksim.msim.vcd
$comment
	File created using the following command:
		vcd file jksim.msim.vcd -direction
$end
$date
	Thu Mar 28 17:29:42 2024
$end
$version
	ModelSim Version 10.1d
$end
$timescale
	1ps
$end
$scope module jksim_vlg_vec_tst $end
$var reg 1 ! CL $end
$var reg 1 " CLRN $end
$var reg 1 # J $end
$var reg 1 $ K $end
$var reg 1 % PRN $end
$var wire 1 & Q $end
$var wire 1 ' sampler $end
$scope module i1 $end
$var wire 1 ( gnd $end
$var wire 1 ) vcc $end
$var wire 1 * unknown $end
$var tri1 1 + devclrn $end
$var tri1 1 , devpor $end
$var tri1 1 - devoe $end
$var wire 1 . Q~output_o $end
$var wire 1 / PRN~input_o $end
$var wire 1 0 CLRN~input_o $end
$var wire 1 1 inst~1_combout $end
$var wire 1 2 CL~input_o $end
$var wire 1 3 K~input_o $end
$var wire 1 4 J~input_o $end
$var wire 1 5 inst~3_combout $end
$var wire 1 6 inst~0_combout $end
$var wire 1 7 inst~_emulated_q $end
$var wire 1 8 inst~2_combout $end
$upscope $end
$upscope $end
$enddefinitions $end
#0
$dumpvars
0!
0"
0#
0$
1%
0&
x'
0(
1)
x*
1+
1,
1-
0.
1/
00
01
02
03
04
05
16
07
08
$end
#20000
1"
1#
10
14
0'
06
15
#30000
1!
12
1'
17
18
1.
1&
#60000
0!
02
0'
#80000
1$
0#
13
04
1'
05
#90000
1!
12
0'
07
08
0.
0&
#100000
1#
14
1'
15
#120000
0!
02
0'
#150000
1!
12
1'
17
18
05
1.
1&
#160000
0$
0#
03
04
0'
15
#180000
0!
02
1'
#210000
1!
12
0'
#220000
1#
14
1'
#240000
1$
0!
0#
13
02
04
0'
05
#270000
1!
12
1'
07
08
0.
0&
#280000
1#
14
0'
15
#300000
0!
02
1'
#320000
0$
0#
03
04
0'
05
#330000
1!
12
1'
#340000
0"
00
0'
16
#360000
1#
0!
14
02
1'
15
#390000
1!
12
0'
#400000
1$
0#
13
04
1'
05
#420000
0!
02
0'
#440000
1#
14
1'
15
#450000
1!
12
0'
#480000
0$
0#
0!
03
04
02
1'
05
#490000
0%
1"
0/
10
0'
11
18
1.
1&
#510000
1!
12
1'
#520000
1#
14
0'
#540000
0!
02
1'
#560000
1$
0#
13
04
0'
15
#570000
1!
12
1'
#600000
1#
0!
14
02
0'
#630000
1!
12
1'
#640000
0$
0#
03
04
0'
05
#660000
1%
0"
0!
1/
00
02
1'
01
08
0.
0&
#680000
1#
14
0'
15
#690000
1!
12
1'
#720000
1$
0#
0!
13
04
02
0'
05
#750000
1!
12
1'
#760000
1#
14
0'
15
#780000
0!
02
1'
#800000
0$
0#
03
04
0'
05
#810000
1!
12
1'
#840000
1#
0!
14
02
0'
15
#870000
1!
12
1'
#880000
1$
0#
13
04
0'
05
#900000
0!
02
1'
#920000
1"
1#
10
14
0'
06
15
#930000
1!
12
1'
17
18
05
1.
1&
#960000
0$
0#
0!
03
04
02
0'
15
#990000
1!
12
1'
