4/async4/simulation/qsim/async4.msim.vcd
$comment
	File created using the following command:
		vcd file async4.msim.vcd -direction
$end
$date
	Thu Mar 28 17:20:41 2024
$end
$version
	ModelSim Version 10.1d
$end
$timescale
	1ps
$end
$scope module async4_vlg_vec_tst $end
$var reg 1 ! CL $end
$var wire 1 " Q0 $end
$var wire 1 # Q1 $end
$var wire 1 $ Q2 $end
$var wire 1 % Q3 $end
$var wire 1 & sampler $end
$scope module i1 $end
$var wire 1 ' gnd $end
$var wire 1 ( vcc $end
$var wire 1 ) unknown $end
$var tri1 1 * devclrn $end
$var tri1 1 + devpor $end
$var tri1 1 , devoe $end
$var wire 1 - Q0~output_o $end
$var wire 1 . Q2~output_o $end
$var wire 1 / Q1~output_o $end
$var wire 1 0 Q3~output_o $end
$var wire 1 1 CL~input_o $end
$var wire 1 2 inst~0_combout $end
$var wire 1 3 inst~feeder_combout $end
$var wire 1 4 inst~q $end
$var wire 1 5 inst1~0_combout $end
$var wire 1 6 inst1~feeder_combout $end
$var wire 1 7 inst1~q $end
$var wire 1 8 inst2~0_combout $end
$var wire 1 9 inst2~feeder_combout $end
$var wire 1 : inst2~q $end
$var wire 1 ; inst3~0_combout $end
$var wire 1 < inst3~q $end
$upscope $end
$upscope $end
$enddefinitions $end
#0
$dumpvars
0!
0"
0#
0$
0%
x&
0'
1(
x)
1*
1+
1,
0-
0.
0/
00
01
12
13
04
15
16
07
18
19
0:
1;
0<
$end
#10000
1!
11
0&
14
02
1-
1"
03
#20000
0!
01
1&
#30000
1!
11
0&
04
12
0-
0"
13
17
05
1/
1#
06
#40000
0!
01
1&
#50000
1!
11
0&
14
02
1-
1"
03
#60000
0!
01
1&
#70000
1!
11
0&
04
12
0-
0"
13
07
15
0/
0#
16
1:
08
1.
1$
09
#80000
0!
01
1&
#90000
1!
11
0&
14
02
1-
1"
03
#100000
0!
01
1&
#110000
1!
11
0&
04
12
0-
0"
13
17
05
1/
1#
06
#120000
0!
01
1&
#130000
1!
11
0&
14
02
1-
1"
03
#140000
0!
01
1&
#150000
1!
11
0&
04
12
0-
0"
13
07
15
0/
0#
16
0:
18
0.
0$
19
1<
0;
10
1%
#160000
0!
01
1&
#170000
1!
11
0&
14
02
1-
1"
03
#180000
0!
01
1&
#190000
1!
11
0&
04
12
0-
0"
13
17
05
1/
1#
06
#200000
0!
01
1&
#210000
1!
11
0&
14
02
1-
1"
03
#220000
0!
01
1&
#230000
1!
11
0&
04
12
0-
0"
13
07
15
0/
0#
16
1:
08
1.
1$
09
#240000
0!
01
1&
#250000
1!
11
0&
14
02
1-
1"
03
#260000
0!
01
1&
#270000
1!
11
0&
04
12
0-
0"
13
17
05
1/
1#
06
#280000
0!
01
1&
#290000
1!
11
0&
14
02
1-
1"
03
#300000
0!
01
1&
#310000
1!
11
0&
04
12
0-
0"
13
07
15
0/
0#
16
0:
18
0.
0$
19
0<
1;
00
0%
#320000
0!
01
1&
#330000
1!
11
0&
14
02
1-
1"
03
#340000
0!
01
1&
#350000
1!
11
0&
04
12
0-
0"
13
17
05
1/
1#
06
#360000
0!
01
1&
#370000
1!
11
0&
14
02
1-
1"
03
#380000
0!
01
1&
#390000
1!
11
0&
04
12
0-
0"
13
07
15
0/
0#
16
1:
08
1.
1$
09
#400000
0!
01
1&
#410000
1!
11
0&
14
02
1-
1"
03
#420000
0!
01
1&
#430000
1!
11
0&
04
12
0-
0"
13
17
05
1/
1#
06
#440000
0!
01
1&
#450000
1!
11
0&
14
02
1-
1"
03
#460000
0!
01
1&
#470000
1!
11
0&
04
12
0-
0"
13
07
15
0/
0#
16
0:
18
0.
0$
19
1<
0;
10
1%
#480000
0!
01
1&
#490000
1!
11
0&
14
02
1-
1"
03
#500000
0!
01
1&
#510000
1!
11
0&
04
12
0-
0"
13
17
05
1/
1#
06
#520000
0!
01
1&
#530000
1!
11
0&
14
02
1-
1"
03
#540000
0!
01
1&
#550000
1!
11
0&
04
12
0-
0"
13
07
15
0/
0#
16
1:
08
1.
1$
09
#560000
0!
01
1&
#570000
1!
11
0&
14
02
1-
1"
03
#580000
0!
01
1&
#590000
1!
11
0&
04
12
0-
0"
13
17
05
1/
1#
06
#600000
0!
01
1&
#610000
1!
11
0&
14
02
1-
1"
03
#620000
0!
01
1&
#630000
1!
11
0&
04
12
0-
0"
13
07
15
0/
0#
16
0:
18
0.
0$
19
0<
1;
00
0%
#640000
0!
01
1&
#650000
1!
11
0&
14
02
1-
1"
03
#660000
0!
01
1&
#670000
1!
11
0&
04
12
0-
0"
13
17
05
1/
1#
06
#680000
0!
01
1&
#690000
1!
11
0&
14
02
1-
1"
03
#700000
0!
01
1&
#710000
1!
11
0&
04
12
0-
0"
13
07
15
0/
0#
16
1:
08
1.
1$
09
#720000
0!
01
1&
#730000
1!
11
0&
14
02
1-
1"
03
#740000
0!
01
1&
#750000
1!
11
0&
04
12
0-
0"
13
17
05
1/
1#
06
#760000
0!
01
1&
#770000
1!
11
0&
14
02
1-
1"
03
#780000
0!
01
1&
#790000
1!
11
0&
04
12
0-
0"
13
07
15
0/
0#
16
0:
18
0.
0$
19
1<
0;
10
1%
#800000
0!
01
1&
#810000
1!
11
0&
14
02
1-
1"
03
#820000
0!
01
1&
#830000
1!
11
0&
04
12
0-
0"
13
17
05
1/
1#
06
#840000
0!
01
1&
#850000
1!
11
0&
14
02
1-
1"
03
#860000
0!
01
1&
#870000
1!
11
0&
04
12
0-
0"
13
07
15
0/
0#
16
1:
08
1.
1$
09
#880000
0!
01
1&
#890000
1!
11
0&
14
02
1-
1"
03
#900000
0!
01
1&
#910000
1!
11
0&
04
12
0-
0"
13
17
05
1/
1#
06
#920000
0!
01
1&
#930000
1!
11
0&
14
02
1-
1"
03
#940000
0!
01
1&
#950000
1!
11
0&
04
12
0-
0"
13
07
15
0/
0#
16
0:
18
0.
0$
19
0<
1;
00
0%
#960000
0!
01
1&
#970000
1!
11
0&
14
02
1-
1"
03
#980000
0!
01
1&
#990000
1!
11
0&
04
12
0-
0"
13
17
05
1/
1#
06
